hmetad: an R package for hierarchical Bayesian modeling of confidence ratings • hmetad
…
hmetad is available via CRAN and can be installed using:

install.packages("hmetad")

Alternatively, you can install the development version of hmetad from GitHub with:

# install.packages("pak")
pak::pak("metacoglab/hmetad")

Quick setup

Let’s say you have some data from a binary decision task with ordinal confidence ratings:

#> # A tibble: 1,000 × 5
#>    trial stimulus response correct confidence
#>    <int>    <int>    <int>   <int>      <int>
#>  1     1        1        1       1          2
#>  2     2        1        0       0          2
#>  3     3        0        0       1          4
#>  4     4        1        1       1          4
#>  5     5        0        1       0          2
#>  6     6        0        1       0          3
#>  7     7        0        1       0          3
#>  8     8        1        0       0          1
#>  9     9        0        0       1          4
#> 10    10        1        1       1          3
#> # ℹ 990 more rows
…
Now let’s say you have a more complicated design, such as a within-participant manipulation:

#> # A tibble: 5,000 × 7
#> # Groups:   participant, condition [50]
#>    participant condition trial stimulus response correct confidence
#>          <int>     <int> <int>    <int>    <int>   <int>      <int>
#>  1           1         1     1        1        1       1          3
#>  2           1         1     2        0        0       1          4
#>  3           1         1     3        1        1       1          4
#>  4           1         1     4        0        0       1          4
#>  5           1         1     5        1        1       1          3
#>  6           1         1     6        1        1       1          4
#>  7           1         1     7        0        0       1          3
#>  8           1         1     8        0        1       0          2
#>  9           1         1     9        0        0       1          4
#> 10           1         1    10        0        0       1          4
#> # ℹ 4,990 more rows
…
