…
``` r

# install.packages("pak")
pak::pak("metacoglab/hmetad")
```

## Quick setup

Let’s say you have some data from a binary decision task with ordinal
confidence ratings:

``` R
#> # A tibble: 1,000 × 5
#>    trial stimulus response correct confidence
#>    <int>    <int>    <int>   <int>      <int>
#>  1     1        0        0       1          2
#>  2     2        1        1       1          1
#>  3     3        0        0       1          1
#>  4     4        0        0       1          3
#>  5     5        0        1       0          1
#>  6     6        1        0       0          2
#>  7     7        1        0       0          1
#>  8     8        0        0       1          1
#>  9     9        0        1       0          2
#> 10    10        0        0       1          3
#> # ℹ 990 more rows
```
…
Now let’s say you have a more complicated design, such as a
within-participant manipulation:

``` R
#> # A tibble: 5,000 × 7
#> # Groups:   participant, condition [50]
#>    participant condition trial stimulus response correct confidence
#>          <int>     <int> <int>    <int>    <int>   <int>      <int>
#>  1           1         1     1        1        1       1          4
#>  2           1         1     2        1        1       1          4
#>  3           1         1     3        0        0       1          2
#>  4           1         1     4        1        1       1          4
#>  5           1         1     5        1        1       1          4
#>  6           1         1     6        0        0       1          1
#>  7           1         1     7        1        1       1          3
#>  8           1         1     8        1        1       1          4
#>  9           1         1     9        0        0       1          3
#> 10           1         1    10        0        1       0          3
#> # ℹ 4,990 more rows
```
…
