…
```
#> # A tibble: 2,500 × 16
#>    participant  item trial stimulus response correct confidence dprime       c meta_dprime     M meta_c2_0
#>          <int> <int> <int>    <int>    <int>   <int>      <int>  <dbl>   <dbl>       <dbl> <dbl> <list>   
#>  1           1     1     1        0        1       0          3  0.725 -0.843        0.614 0.847 <dbl [2]>
#>  2           1     1     1        1        1       1          3  0.725 -0.843        0.614 0.847 <dbl [2]>
#>  3           1     2     1        0        0       1          2  1.74  -1.24         1.12  0.642 <dbl [2]>
#>  4           1     2     1        1        1       1          3  1.74  -1.24         1.12  0.642 <dbl [2]>
#>  5           1     3     1        0        0       1          3  0.746  0.614        0.565 0.758 <dbl [2]>
#>  6           1     3     1        1        0       0          2  0.746  0.614        0.565 0.758 <dbl [2]>
#>  7           1     4     1        0        0       1          2  1.50  -0.0110       1.21  0.809 <dbl [2]>
#>  8           1     4     1        1        1       1          3  1.50  -0.0110       1.21  0.809 <dbl [2]>
#>  9           1     5     1        0        0       1          1  1.21  -0.231        1.13  0.931 <dbl [2]>
#> 10           1     5     1        1        1       1          1  1.21  -0.231        1.13  0.931 <dbl [2]>
#> # ℹ 2,490 more rows
#> # ℹ 4 more variables: meta_c2_1 <list>, theta <dbl>, theta_1 <dbl>, theta_2 <dbl>
```

Don't worry about the details of the simulation code- what matters is that we have a data set with repeated measures for participants:


``` r
count(d, participant)
#> # A tibble: 50 × 2
#>    participant     n
#>          <int> <int>
#>  1           1    50
#>  2           2    50
#>  3           3    50
#>  4           4    50
#>  5           5    50
#>  6           6    50
#>  7           7    50
#>  8           8    50
#>  9           9    50
#> 10          10    50
#> # ℹ 40 more rows
```
And repeated measures for items:

``` r
count(d, item)
#> # A tibble: 25 × 2
#>     item     n
#>    <int> <int>
#>  1     1   100
#>  2     2   100
#>  3     3   100
#>  4     4   100
#>  5     5   100
#>  6     6   100
#>  7     7   100
#>  8     8   100
#>  9     9   100
#> 10    10   100
#> # ℹ 15 more rows
```

## Standard model with data aggregation
If we would like, we can use the `fit_metad` function on this data with participant-level and item-level effects. However, if we aggregate the data ourselves, we can see that the aggregation doesn't really help us here:


``` r
aggregate_metad(d, participant, item)
#> `hmetad` has inferred that there are K=3 confidence levels in the data. If this is incorrect, please set this manually using the argument `K=<K>`
#> # A tibble: 1,250 × 5
#>    participant  item   N_0   N_1 N[,"N_0_1"] [,"N_0_2"] [,"N_0_3"] [,"N_0_4"] [,"N_0_5"] [,"N_0_6"] [,"N_1_1"]
#>          <int> <int> <int> <int>       <int>      <int>      <int>      <int>      <int>      <int>      <int>
#>  1           1     1     1     1           0          0          0          0          0          1          0
#>  2           1     2     1     1           0          1          0          0          0          0          0
#>  3           1     3     1     1           1          0          0          0          0          0          0
#>  4           1     4     1     1           0          1          0          0          0          0          0
#>  5           1     5     1     1           0          0          1          0          0          0          0
#>  6           1     6     1     1           1          0          0          0          0          0          0
#>  7           1     7     1     1           0          0          0          0          1          0          0
#>  8           1     8     1     1           1          0          0          0          0          0          0
#>  9           1     9     1     1           1          0          0          0          0          0          0
#> 10           1    10     1     1           1          0          0          0          0          0          0
#> # ℹ 1,240 more rows
#> # ℹ 1 more variable: N[8:12] <int>
```
…
  * a column with the stimulus per trial (`0` or `1`), and
  * a column containing the joint type 1/type 2 responses per trial (between `1` and `2*K`).

Our data already has a `stimulus` column but separate columns for the two responses. So, we can add in a joint response column now:

``` r
d <- d |>
  mutate(joint_response = joint_response(response, confidence, K)) |>
  relocate(joint_response, .after = "stimulus")
```


```
#> # A tibble: 2,500 × 17
#>    participant  item trial stimulus joint_response response correct confidence dprime       c meta_dprime     M
#>          <int> <int> <int>    <int>          <int>    <int>   <int>      <int>  <dbl>   <dbl>       <dbl> <dbl>
#>  1           1     1     1        0              6        1       0          3  0.725 -0.843        0.614 0.847
#>  2           1     1     1        1              6        1       1          3  0.725 -0.843        0.614 0.847
#>  3           1     2     1        0              2        0       1          2  1.74  -1.24         1.12  0.642
#>  4           1     2     1        1              6        1       1          3  1.74  -1.24         1.12  0.642
#>  5           1     3     1        0              1        0       1          3  0.746  0.614        0.565 0.758
#>  6           1     3     1        1              2        0       0          2  0.746  0.614        0.565 0.758
#>  7           1     4     1        0              2        0       1          2  1.50  -0.0110       1.21  0.809
#>  8           1     4     1        1              6        1       1          3  1.50  -0.0110       1.21  0.809
#>  9           1     5     1        0              3        0       1          1  1.21  -0.231        1.13  0.931
#> 10           1     5     1        1              4        1       1          1  1.21  -0.231        1.13  0.931
#> # ℹ 2,490 more rows
#> # ℹ 5 more variables: meta_c2_0 <list>, meta_c2_1 <list>, theta <dbl>, theta_1 <dbl>, theta_2 <dbl>
```
…
Next, to get participant-level ROCs (averaging over items), we can use a dataset with one row per participant and only the participant-level random effects:

``` r
roc1_rvars(m.categorical, distinct(d, participant), re_formula = ~ (1 | participant))
#> # A tibble: 250 × 7
#> # Groups:   .row, participant, joint_response, response, confidence [250]
#>     .row participant joint_response response confidence          p_fa         p_hit
#>    <int>       <int>          <int>    <int>      <dbl>    <rvar[1d]>    <rvar[1d]>
#>  1     1           1              1        0          3  0.54 ± 0.103  0.93 ± 0.038
#>  2     2           2              1        0          3  0.75 ± 0.077  0.91 ± 0.042
#>  3     3           3              1        0          3  0.84 ± 0.066  0.96 ± 0.024
#>  4     4           4              1        0          3  0.45 ± 0.099  0.78 ± 0.073
#>  5     5           5              1        0          3  0.63 ± 0.093  0.93 ± 0.035
#>  6     6           6              1        0          3  0.44 ± 0.099  0.91 ± 0.043
#>  7     7           7              1        0          3  0.60 ± 0.092  0.88 ± 0.051
#>  8     8           8              1        0          3  0.40 ± 0.095  0.67 ± 0.088
#>  9     9           9              1        0          3  0.72 ± 0.083  0.88 ± 0.052
#> 10    10          10              1        0          3  0.50 ± 0.099  0.68 ± 0.087
#> # ℹ 240 more rows
```


We can use a similar process to get item-level ROCs (averaging over participants):

``` r
roc1_rvars(m.categorical, distinct(d, item), re_formula = ~ (1 | item))
#> # A tibble: 125 × 7
#> # Groups:   .row, item, joint_response, response, confidence [125]
#>     .row  item joint_response response confidence          p_fa          p_hit
#>    <int> <int>          <int>    <int>      <dbl>    <rvar[1d]>     <rvar[1d]>
#>  1     1     1              1        0          3  0.92 ± 0.026  0.98 ± 0.0115
#>  2     2     2              1        0          3  0.93 ± 0.023  1.00 ± 0.0023
#>  3     3     3              1        0          3  0.59 ± 0.064  0.74 ± 0.0521
#>  4     4     4              1        0          3  0.50 ± 0.066  0.91 ± 0.0292
#>  5     5     5              1        0          3  0.71 ± 0.055  0.93 ± 0.0252
#>  6     6     6              1        0          3  0.50 ± 0.067  0.92 ± 0.0249
#>  7     7     7              1        0          3  0.47 ± 0.067  0.84 ± 0.0413
#>  8     8     8              1        0          3  0.43 ± 0.064  0.89 ± 0.0324
#>  9     9     9              1        0          3  0.56 ± 0.065  0.88 ± 0.0334
#> 10    10    10              1        0          3  0.41 ± 0.065  0.87 ± 0.0349
#> # ℹ 115 more rows
```
…
