Obtain posterior draws of an index of metacognitive bias — metacognitive_bias_draws • hmetad
…
#> Chain 4: Iteration: 150 / 500 [ 30%]  (Warmup)
#> Chain 4: Iteration: 200 / 500 [ 40%]  (Warmup)
#> Chain 4: Iteration: 250 / 500 [ 50%]  (Warmup)
#> Chain 4: Iteration: 251 / 500 [ 50%]  (Sampling)
#> Chain 4: Iteration: 300 / 500 [ 60%]  (Sampling)
#> Chain 4: Iteration: 350 / 500 [ 70%]  (Sampling)
#> Chain 4: Iteration: 400 / 500 [ 80%]  (Sampling)
#> Chain 4: Iteration: 450 / 500 [ 90%]  (Sampling)
#> Chain 4: Iteration: 500 / 500 [100%]  (Sampling)
#> Chain 4: 
#> Chain 4:  Elapsed Time: 0.026 seconds (Warm-up)
#> Chain 4:                0.022 seconds (Sampling)
#> Chain 4:                0.048 seconds (Total)
#> Chain 4: 
#> # A tibble: 2,000 × 6
#> # Groups:   .row, response [2]
#>     .row response .chain .iteration .draw metacognitive_bias
#>    <int>    <int>  <int>      <int> <int>              <dbl>
#>  1     1        0     NA         NA     1              0.957
#>  2     1        0     NA         NA     2              1.11 
#>  3     1        0     NA         NA     3              1.10 
#>  4     1        0     NA         NA     4              1.07 
#>  5     1        0     NA         NA     5              1.07 
#>  6     1        0     NA         NA     6              0.990
#>  7     1        0     NA         NA     7              1.04 
#>  8     1        0     NA         NA     8              1.00 
#>  9     1        0     NA         NA     9              1.05 
#> 10     1        0     NA         NA    10              1.02 
#> # ℹ 1,990 more rows
…
