…
## See also

[`tidybayes::epred_draws()`](https://mjskay.github.io/tidybayes/reference/add_predicted_draws.html),
[`tidybayes::epred_rvars()`](https://mjskay.github.io/tidybayes/reference/add_predicted_rvars.html)

## Examples

``` r
# \donttest{
newdata <- tidyr::tibble(.row = 1)

# obtain model predictions
# equivalent to `add_epred_draws_metad(newdata, example_model())`
epred_draws_metad(example_model(), newdata)
#> # A tibble: 16,000 × 9
#> # Groups:   .row, stimulus, joint_response, response, confidence [16]
#>     .row stimulus joint_response response confidence .epred .chain .iteration
#>    <int>    <int>          <int>    <int>      <dbl>  <dbl>  <int>      <int>
#>  1     1        0              1        0          4  0.164     NA         NA
#>  2     1        0              1        0          4  0.126     NA         NA
#>  3     1        0              1        0          4  0.119     NA         NA
#>  4     1        0              1        0          4  0.129     NA         NA
#>  5     1        0              1        0          4  0.133     NA         NA
#>  6     1        0              1        0          4  0.153     NA         NA
#>  7     1        0              1        0          4  0.144     NA         NA
#>  8     1        0              1        0          4  0.153     NA         NA
#>  9     1        0              1        0          4  0.124     NA         NA
#> 10     1        0              1        0          4  0.165     NA         NA
#> # ℹ 15,990 more rows
#> # ℹ 1 more variable: .draw <int>
…
