Obtain posterior draws of joint response probabilities — epred_draws_metad • hmetad
…
# obtain model predictions
epred_draws_metad(m, newdata)
#> # A tibble: 4,000 × 9
#> # Groups:   .row, stimulus, joint_response, response, confidence [16]
#>     .row stimulus joint_response response confidence .epred .chain .iteration
#>    <int>    <int>          <int>    <int>      <dbl>  <dbl>  <int>      <int>
#>  1     1        0              1        0          4 0.0863     NA         NA
#>  2     1        0              1        0          4 0.173      NA         NA
#>  3     1        0              1        0          4 0.103      NA         NA
#>  4     1        0              1        0          4 0.148      NA         NA
#>  5     1        0              1        0          4 0.127      NA         NA
#>  6     1        0              1        0          4 0.198      NA         NA
#>  7     1        0              1        0          4 0.143      NA         NA
#>  8     1        0              1        0          4 0.151      NA         NA
#>  9     1        0              1        0          4 0.122      NA         NA
#> 10     1        0              1        0          4 0.0978     NA         NA
#> # ℹ 3,990 more rows
#> # ℹ 1 more variable: .draw <int>
add_epred_draws_metad(newdata, m)
#> # A tibble: 4,000 × 9
#> # Groups:   .row, stimulus, joint_response, response, confidence [16]
#>     .row stimulus joint_response response confidence .epred .chain .iteration
#>    <int>    <int>          <int>    <int>      <dbl>  <dbl>  <int>      <int>
#>  1     1        0              1        0          4 0.0863     NA         NA
#>  2     1        0              1        0          4 0.173      NA         NA
#>  3     1        0              1        0          4 0.103      NA         NA
#>  4     1        0              1        0          4 0.148      NA         NA
#>  5     1        0              1        0          4 0.127      NA         NA
#>  6     1        0              1        0          4 0.198      NA         NA
#>  7     1        0              1        0          4 0.143      NA         NA
#>  8     1        0              1        0          4 0.151      NA         NA
#>  9     1        0              1        0          4 0.122      NA         NA
#> 10     1        0              1        0          4 0.0978     NA         NA
#> # ℹ 3,990 more rows
#> # ℹ 1 more variable: .draw <int>
…
