Example meta-d' model for model post-processing — example_model • hmetad
…
# obtain posterior expectations
epred_draws_metad(example_model, tidyr::tibble(.row = 1))
#> # A tibble: 16,000 × 9
#> # Groups:   .row, stimulus, joint_response, response, confidence [16]
#>     .row stimulus joint_response response confidence .epred .chain .iteration
#>    <int>    <int>          <int>    <int>      <dbl>  <dbl>  <int>      <int>
#>  1     1        0              1        0          4  0.191     NA         NA
#>  2     1        0              1        0          4  0.209     NA         NA
#>  3     1        0              1        0          4  0.171     NA         NA
#>  4     1        0              1        0          4  0.174     NA         NA
#>  5     1        0              1        0          4  0.196     NA         NA
#>  6     1        0              1        0          4  0.185     NA         NA
#>  7     1        0              1        0          4  0.183     NA         NA
#>  8     1        0              1        0          4  0.176     NA         NA
#>  9     1        0              1        0          4  0.184     NA         NA
#> 10     1        0              1        0          4  0.172     NA         NA
#> # ℹ 15,990 more rows
#> # ℹ 1 more variable: .draw <int>
…
