…
## See also

[`tidybayes::linpred_draws()`](https://mjskay.github.io/tidybayes/reference/add_predicted_draws.html),
[`tidybayes::linpred_rvars()`](https://mjskay.github.io/tidybayes/reference/add_predicted_rvars.html)

## Examples

``` r
# \donttest{
newdata <- tidyr::tibble(.row = 1)

# obtain model parameters (wide format)
# equivalent to `add_linpred_draws_metad(newdata, example_model())`
linpred_draws_metad(example_model(), newdata)
#> # A tibble: 1,000 × 15
#> # Groups:   .row [1]
#>     .row .chain .iteration .draw     M dprime        c meta_dprime   meta_c
#>    <int>  <int>      <int> <int> <dbl>  <dbl>    <dbl>       <dbl>    <dbl>
#>  1     1     NA         NA     1 0.876  1.21   0.0608         1.06  0.0608 
#>  2     1     NA         NA     2 1.34   0.902 -0.00698        1.20 -0.00698
#>  3     1     NA         NA     3 1.29   0.841  0.0279         1.09  0.0279 
#>  4     1     NA         NA     4 1.38   0.811  0.0592         1.12  0.0592 
#>  5     1     NA         NA     5 1.03   1.03   0.00816        1.06  0.00816
#>  6     1     NA         NA     6 1.26   0.964 -0.00439        1.21 -0.00439
#>  7     1     NA         NA     7 1.05   1.08  -0.0253         1.14 -0.0253 
#>  8     1     NA         NA     8 0.994  1.07   0.00983        1.06  0.00983
#>  9     1     NA         NA     9 1.15   0.934  0.00784        1.07  0.00784
#> 10     1     NA         NA    10 1.27   0.980  0.00993        1.25  0.00993
#> # ℹ 990 more rows
#> # ℹ 6 more variables: meta_c2_0_1 <dbl>, meta_c2_0_2 <dbl>, meta_c2_0_3 <dbl>,
#> #   meta_c2_1_1 <dbl>, meta_c2_1_2 <dbl>, meta_c2_1_3 <dbl>

# obtain model parameters (long format)
# equivalent to `add_linpred_draws_metad(newdata, example_model(), pivot_longer = TRUE)`
linpred_draws_metad(example_model(), newdata, pivot_longer = TRUE)
#> # A tibble: 11,000 × 6
#> # Groups:   .row, .variable [11]
#>     .row .chain .iteration .draw .variable    .value
#>    <int>  <int>      <int> <int> <chr>         <dbl>
#>  1     1     NA         NA     1 M            0.876 
#>  2     1     NA         NA     1 dprime       1.21  
#>  3     1     NA         NA     1 c            0.0608
#>  4     1     NA         NA     1 meta_dprime  1.06  
#>  5     1     NA         NA     1 meta_c       0.0608
#>  6     1     NA         NA     1 meta_c2_0_1 -0.332 
#>  7     1     NA         NA     1 meta_c2_0_2 -0.825 
#>  8     1     NA         NA     1 meta_c2_0_3 -1.53  
#>  9     1     NA         NA     1 meta_c2_1_1  0.563 
#> 10     1     NA         NA     1 meta_c2_1_2  1.08  
#> # ℹ 10,990 more rows
…
