Obtain posterior draws of meta-d' model parameters — linpred_draws_metad • hmetad
…
M, dprime, c, meta_dprime, meta_c, meta_c2_0_<k>, meta_c2_1_<k>: if pivot_longer=FALSE, posterior samples of all meta-d' model parameters

    Examples

if (FALSE) { # \dontrun{
# running few iterations so example runs quickly, use more in practice
example_data <- sim_metad(N_trials = 1000)
example_model <- fit_metad(N ~ 1, example_data, chains = 1, iter = 500)
} # }
example_model <- hmetad:::example_model
newdata <- tidyr::tibble(.row = 1)

# obtain model parameters (wide format)
linpred_draws_metad(example_model, newdata)
#> # A tibble: 250 × 15
#> # Groups:   .row [1]
#>     .row .chain .iteration .draw     M dprime       c meta_dprime  meta_c
#>    <int>  <int>      <int> <int> <dbl>  <dbl>   <dbl>       <dbl>   <dbl>
#>  1     1     NA         NA     1 1.07   1.03  -0.0303        1.11 -0.0303
#>  2     1     NA         NA     2 1.19   1.06  -0.0200        1.26 -0.0303
#>  3     1     NA         NA     3 1.29   0.928 -0.0623        1.20 -0.0303
#>  4     1     NA         NA     4 0.958  1.14   0.101         1.09 -0.0303
#>  5     1     NA         NA     5 1.08   1.05   0.126         1.14 -0.0303
#>  6     1     NA         NA     6 1.20   0.995  0.0572        1.20 -0.0303
#>  7     1     NA         NA     7 1.07   1.08  -0.0559        1.15 -0.0303
#>  8     1     NA         NA     8 1.12   0.984 -0.0592        1.10 -0.0303
#>  9     1     NA         NA     9 1.28   1.01  -0.0244        1.30 -0.0303
#> 10     1     NA         NA    10 1.21   0.900 -0.0106        1.09 -0.0303
#> # ℹ 240 more rows
#> # ℹ 6 more variables: meta_c2_0_1 <dbl>, meta_c2_0_2 <dbl>, meta_c2_0_3 <dbl>,
#> #   meta_c2_1_1 <dbl>, meta_c2_1_2 <dbl>, meta_c2_1_3 <dbl>
…
