…
[`tidybayes::predicted_draws()`](https://mjskay.github.io/tidybayes/reference/add_predicted_draws.html),
[`tidybayes::predicted_rvars()`](https://mjskay.github.io/tidybayes/reference/add_predicted_rvars.html)

## Examples

``` r
# \donttest{
newdata <- aggregate_metad(example_data())
#> `hmetad` has inferred that there are K=4 confidence levels in the data. If this is incorrect, please set this manually using the argument `K=<K>`

# obtain model predictions
# equivalent to `add_predicted_draws_metad(newdata, example_model())`
predicted_draws_metad(example_model(), newdata)
#> # A tibble: 16,000 × 12
#> # Groups:   .row, N_0, N_1, N, stimulus, joint_response, response, confidence
#> #   [16]
#>     .row   N_0   N_1 N[,"N_0_1"] stimulus joint_response response confidence
#>    <int> <int> <int>       <int>    <int>          <int>    <int>      <dbl>
#>  1     1   500   500          71        0              1        0          4
#>  2     1   500   500          71        0              1        0          4
#>  3     1   500   500          71        0              1        0          4
#>  4     1   500   500          71        0              1        0          4
#>  5     1   500   500          71        0              1        0          4
#>  6     1   500   500          71        0              1        0          4
#>  7     1   500   500          71        0              1        0          4
#>  8     1   500   500          71        0              1        0          4
#>  9     1   500   500          71        0              1        0          4
#> 10     1   500   500          71        0              1        0          4
#> # ℹ 15,990 more rows
#> # ℹ 5 more variables: N[2:16] <int>, .prediction <int>, .chain <int>,
#> #   .iteration <int>, .draw <int>
…
