…
## See also

[`tidybayes::epred_draws()`](https://mjskay.github.io/tidybayes/reference/add_predicted_draws.html),
[`tidybayes::epred_rvars()`](https://mjskay.github.io/tidybayes/reference/add_predicted_rvars.html)

## Examples

``` r
# \donttest{
newdata <- tidyr::tibble(.row = 1)

# compute type 2 ROC curve
# equivalent to `add_roc2_draws(newdata, example_model())`
roc2_draws(example_model(), newdata)
#> # A tibble: 6,000 × 8
#> # Groups:   .row, response, confidence [6]
#>     .row response confidence .chain .iteration .draw p_hit2  p_fa2
#>    <int>    <int>      <dbl>  <int>      <int> <int>  <dbl>  <dbl>
#>  1     1        0          4     NA         NA     1  0.219 0.0617
#>  2     1        0          4     NA         NA     2  0.188 0.0394
#>  3     1        0          4     NA         NA     3  0.177 0.0423
#>  4     1        0          4     NA         NA     4  0.190 0.0447
#>  5     1        0          4     NA         NA     5  0.190 0.0496
#>  6     1        0          4     NA         NA     6  0.224 0.0520
#>  7     1        0          4     NA         NA     7  0.207 0.0518
#>  8     1        0          4     NA         NA     8  0.217 0.0612
#>  9     1        0          4     NA         NA     9  0.182 0.0459
#> 10     1        0          4     NA         NA    10  0.238 0.0543
#> # ℹ 5,990 more rows
…
# include the ROC bounds
# equivalent to `roc2_draws(newdata, example_model(), bounds = TRUE)`
roc2_draws(example_model(), newdata, bounds = TRUE)
#> # A tibble: 10,000 × 8
#> # Groups:   .row, response, confidence [10]
#>     .row response confidence .chain .iteration .draw p_hit2  p_fa2
#>    <int>    <dbl>      <dbl>  <int>      <int> <int>  <dbl>  <dbl>
#>  1     1        0          4     NA         NA     1  0.219 0.0617
#>  2     1        0          4     NA         NA     2  0.188 0.0394
#>  3     1        0          4     NA         NA     3  0.177 0.0423
#>  4     1        0          4     NA         NA     4  0.190 0.0447
#>  5     1        0          4     NA         NA     5  0.190 0.0496
#>  6     1        0          4     NA         NA     6  0.224 0.0520
#>  7     1        0          4     NA         NA     7  0.207 0.0518
#>  8     1        0          4     NA         NA     8  0.217 0.0612
#>  9     1        0          4     NA         NA     9  0.182 0.0459
#> 10     1        0          4     NA         NA    10  0.238 0.0543
#> # ℹ 9,990 more rows
…
