…
      z_c2_0_participant, z_c2_0_item,
      ~ exp(mu_c2_0 + .x + .y)
    ),
    c2_1_diff = map2(
      z_c2_1_participant, z_c2_1_item,
      ~ exp(mu_c2_1 + .x + .y)
    )
  ) |>
  ## simulate two trials per participant/item (stimulus = 0 and stimulus = 1)
  mutate(trial = pmap(list(dprime, c, log_M, c2_0_diff, c2_1_diff), sim_metad, N_trials = 2)) |>
  select(participant, item, trial) |>
  unnest(trial)
```

    #> # A tibble: 2,500 × 16
    #>    participant  item trial stimulus response correct confidence dprime
    #>          <int> <int> <int>    <int>    <int>   <int>      <int>  <dbl>
    #>  1           1     1     1        0        0       1          3   1.67
    #>  2           1     1     1        1        1       1          2   1.67
    #>  3           1     2     1        0        0       1          1   1.78
    #>  4           1     2     1        1        1       1          3   1.78
    #>  5           1     3     1        0        0       1          3   1.21
    #>  6           1     3     1        1        0       0          2   1.21
    #>  7           1     4     1        0        0       1          3   1.27
    #>  8           1     4     1        1        1       1          3   1.27
    #>  9           1     5     1        0        0       1          2   1.90
    #> 10           1     5     1        1        0       0          1   1.90
    #> # ℹ 2,490 more rows
    #> # ℹ 8 more variables: c <dbl>, meta_dprime <dbl>, M <dbl>,
    #> #   meta_c2_0 <list>, meta_c2_1 <list>, theta <dbl>, theta_1 <dbl>,
    #> #   theta_2 <dbl>

Don’t worry about the details of the simulation code- what matters is
that we have a data set with repeated measures for participants:

``` r
count(d, participant)
#> # A tibble: 50 × 2
#>    participant     n
#>          <int> <int>
#>  1           1    50
#>  2           2    50
#>  3           3    50
#>  4           4    50
#>  5           5    50
#>  6           6    50
#>  7           7    50
#>  8           8    50
#>  9           9    50
#> 10          10    50
#> # ℹ 40 more rows
```

And repeated measures for items:

``` r
count(d, item)
#> # A tibble: 25 × 2
#>     item     n
#>    <int> <int>
#>  1     1   100
#>  2     2   100
#>  3     3   100
#>  4     4   100
#>  5     5   100
#>  6     6   100
#>  7     7   100
#>  8     8   100
#>  9     9   100
#> 10    10   100
#> # ℹ 15 more rows
```

## Standard model with data aggregation

If we would like, we can use the `fit_metad` function on this data with
participant-level and item-level effects. However, if we aggregate the
data ourselves, we can see that the aggregation doesn’t really help us
here:

``` r
aggregate_metad(d, participant, item)
#> # A tibble: 1,250 × 5
#>    participant item    N_0   N_1 N[,"N_0_1"] [,"N_0_2"] [,"N_0_3"]
#>    <fct>       <fct> <int> <int>       <int>      <int>      <int>
#>  1 1           1         1     1           1          0          0
#>  2 1           2         1     1           0          0          1
#>  3 1           3         1     1           1          0          0
#>  4 1           4         1     1           1          0          0
#>  5 1           5         1     1           0          1          0
#>  6 1           6         1     1           0          0          0
#>  7 1           7         1     1           1          0          0
#>  8 1           8         1     1           1          0          0
#>  9 1           9         1     1           0          0          1
#> 10 1           10        1     1           1          0          0
#> # ℹ 1,240 more rows
#> # ℹ 1 more variable: N[4:12] <int>
```
…
- a column with the stimulus per trial (`0` or `1`), and
- a column containing the joint type 1/type 2 responses per trial
  (between `1` and `2*K`).

Our data already has a `stimulus` column but separate columns for the
two responses. So, we can add in a joint response column now:

``` r
d <- d |>
  mutate(joint_response = joint_response(response, confidence, K)) |>
  relocate(joint_response, .after = "stimulus")
```

    #> # A tibble: 2,500 × 17
    #>    participant  item trial stimulus joint_response response correct
    #>          <int> <int> <int>    <int>          <dbl>    <int>   <int>
    #>  1           1     1     1        0              1        0       1
    #>  2           1     1     1        1              5        1       1
    #>  3           1     2     1        0              3        0       1
    #>  4           1     2     1        1              6        1       1
    #>  5           1     3     1        0              1        0       1
    #>  6           1     3     1        1              2        0       0
    #>  7           1     4     1        0              1        0       1
    #>  8           1     4     1        1              6        1       1
    #>  9           1     5     1        0              2        0       1
    #> 10           1     5     1        1              3        0       0
    #> # ℹ 2,490 more rows
    #> # ℹ 10 more variables: confidence <int>, dprime <dbl>, c <dbl>,
    #> #   meta_dprime <dbl>, M <dbl>, meta_c2_0 <list>, meta_c2_1 <list>,
    #> #   theta <dbl>, theta_1 <dbl>, theta_2 <dbl>
…
Next, to get participant-level ROCs (averaging over items), we can use a
dataset with one row per participant and only the participant-level
random effects:

``` r
roc1_rvars(m.categorical, distinct(d, participant), re_formula = ~ (1 | participant))
#> # A tibble: 250 × 7
#> # Groups:   .row, participant, joint_response, response, confidence [250]
#>     .row participant joint_response response confidence          p_fa
#>    <int>       <int>          <int>    <int>      <dbl>    <rvar[1d]>
#>  1     1           1              1        0          3  0.84 ± 0.075
#>  2     2           2              1        0          3  0.89 ± 0.061
#>  3     3           3              1        0          3  0.68 ± 0.106
#>  4     4           4              1        0          3  0.73 ± 0.105
#>  5     5           5              1        0          3  0.76 ± 0.096
#>  6     6           6              1        0          3  0.86 ± 0.079
#>  7     7           7              1        0          3  0.83 ± 0.082
#>  8     8           8              1        0          3  0.68 ± 0.111
#>  9     9           9              1        0          3  0.75 ± 0.099
#> 10    10          10              1        0          3  0.87 ± 0.067
#> # ℹ 240 more rows
#> # ℹ 1 more variable: p_hit <rvar[1d]>
```

We can use a similar process to get item-level ROCs (averaging over
participants):

``` r
roc1_rvars(m.categorical, distinct(d, item), re_formula = ~ (1 | item))
#> # A tibble: 125 × 7
#> # Groups:   .row, item, joint_response, response, confidence [125]
#>     .row  item joint_response response confidence          p_fa
#>    <int> <int>          <int>    <int>      <dbl>    <rvar[1d]>
#>  1     1     1              1        0          3  0.23 ± 0.057
#>  2     2     2              1        0          3  0.26 ± 0.063
#>  3     3     3              1        0          3  0.32 ± 0.065
#>  4     4     4              1        0          3  0.62 ± 0.067
#>  5     5     5              1        0          3  0.74 ± 0.062
#>  6     6     6              1        0          3  0.36 ± 0.069
#>  7     7     7              1        0          3  0.79 ± 0.057
#>  8     8     8              1        0          3  0.31 ± 0.064
#>  9     9     9              1        0          3  0.79 ± 0.057
#> 10    10    10              1        0          3  0.57 ± 0.069
#> # ℹ 115 more rows
#> # ℹ 1 more variable: p_hit <rvar[1d]>
```
…
