Estimating trial-level effects • hmetad
…
    c2_0_diff = map2(
      z_c2_0_participant, z_c2_0_item,
      ~ exp(mu_c2_0 + .x + .y)
    ),
    c2_1_diff = map2(
      z_c2_1_participant, z_c2_1_item,
      ~ exp(mu_c2_1 + .x + .y)
    )
  ) |>
  ## simulate two trials per participant/item (stimulus = 0 and stimulus = 1)
  mutate(trial = pmap(list(dprime, c, log_M, c2_0_diff, c2_1_diff), sim_metad, N_trials = 2)) |>
  select(participant, item, trial) |>
  unnest(trial)

#> # A tibble: 2,500 × 16
#>    participant  item trial stimulus response correct confidence dprime       c meta_dprime     M
#>          <int> <int> <int>    <int>    <int>   <int>      <int>  <dbl>   <dbl>       <dbl> <dbl>
#>  1           1     1     1        0        0       1          3  1.16   0.585        0.895 0.774
#>  2           1     1     1        1        0       0          1  1.16   0.585        0.895 0.774
#>  3           1     2     1        0        1       0          3  0.633 -0.0996       0.466 0.736
#>  4           1     2     1        1        1       1          1  0.633 -0.0996       0.466 0.736
#>  5           1     3     1        0        0       1          3  0.548  0.788        0.431 0.787
#>  6           1     3     1        1        0       0          3  0.548  0.788        0.431 0.787
#>  7           1     4     1        0        1       0          1  0.686  0.497        0.485 0.707
#>  8           1     4     1        1        1       1          2  0.686  0.497        0.485 0.707
#>  9           1     5     1        0        0       1          2  0.487 -0.182        0.383 0.788
#> 10           1     5     1        1        1       1          3  0.487 -0.182        0.383 0.788
#> # ℹ 2,490 more rows
#> # ℹ 5 more variables: meta_c2_0 <list>, meta_c2_1 <list>, theta <dbl>, theta_1 <dbl>, theta_2 <dbl>

Don’t worry about the details of the simulation code- what matters is
that we have a data set with repeated measures for participants:

count(d, participant)
#> # A tibble: 50 × 2
#>    participant     n
#>          <int> <int>
#>  1           1    50
#>  2           2    50
#>  3           3    50
#>  4           4    50
#>  5           5    50
#>  6           6    50
#>  7           7    50
#>  8           8    50
#>  9           9    50
#> 10          10    50
#> # ℹ 40 more rows

And repeated measures for items:

count(d, item)
#> # A tibble: 25 × 2
#>     item     n
#>    <int> <int>
#>  1     1   100
#>  2     2   100
#>  3     3   100
#>  4     4   100
#>  5     5   100
#>  6     6   100
#>  7     7   100
#>  8     8   100
#>  9     9   100
#> 10    10   100
#> # ℹ 15 more rows

Standard model with data aggregation

If we would like, we can use the fit_metad function on
this data with participant-level and item-level effects. However, if we
aggregate the data ourselves, we can see that the aggregation doesn’t
really help us here:

aggregate_metad(d, participant, item)
#> `hmetad` has inferred that there are K=3 confidence levels in the data. If this is incorrect, please set this manually using the argument `K=<K>`
#> # A tibble: 1,250 × 5
#>    participant  item   N_0   N_1 N[,"N_0_1"] [,"N_0_2"] [,"N_0_3"] [,"N_0_4"] [,"N_0_5"] [,"N_0_6"]
#>          <int> <int> <int> <int>       <int>      <int>      <int>      <int>      <int>      <int>
#>  1           1     1     1     1           1          0          0          0          0          0
#>  2           1     2     1     1           0          0          0          0          0          1
#>  3           1     3     1     1           1          0          0          0          0          0
#>  4           1     4     1     1           0          0          0          1          0          0
#>  5           1     5     1     1           0          1          0          0          0          0
#>  6           1     6     1     1           0          0          1          0          0          0
#>  7           1     7     1     1           1          0          0          0          0          0
#>  8           1     8     1     1           0          0          1          0          0          0
#>  9           1     9     1     1           0          0          1          0          0          0
#> 10           1    10     1     1           1          0          0          0          0          0
#> # ℹ 1,240 more rows
#> # ℹ 1 more variable: N[7:12] <int>
…
a column with the stimulus per trial (0 or
1), and

a column containing the joint type 1/type 2 responses per trial
(between 1 and 2*K).

Our data already has a stimulus column but separate
columns for the two responses. So, we can add in a joint response column
now:

d <- d |>
  mutate(joint_response = joint_response(response, confidence, K)) |>
  relocate(joint_response, .after = "stimulus")

#> # A tibble: 2,500 × 17
#>    participant  item trial stimulus joint_response response correct confidence dprime       c
#>          <int> <int> <int>    <int>          <int>    <int>   <int>      <int>  <dbl>   <dbl>
#>  1           1     1     1        0              1        0       1          3  1.16   0.585 
#>  2           1     1     1        1              3        0       0          1  1.16   0.585 
#>  3           1     2     1        0              6        1       0          3  0.633 -0.0996
#>  4           1     2     1        1              4        1       1          1  0.633 -0.0996
#>  5           1     3     1        0              1        0       1          3  0.548  0.788 
#>  6           1     3     1        1              1        0       0          3  0.548  0.788 
#>  7           1     4     1        0              4        1       0          1  0.686  0.497 
#>  8           1     4     1        1              5        1       1          2  0.686  0.497 
#>  9           1     5     1        0              2        0       1          2  0.487 -0.182 
#> 10           1     5     1        1              6        1       1          3  0.487 -0.182 
#> # ℹ 2,490 more rows
#> # ℹ 7 more variables: meta_dprime <dbl>, M <dbl>, meta_c2_0 <list>, meta_c2_1 <list>, theta <dbl>,
#> #   theta_1 <dbl>, theta_2 <dbl>
…
Next, to get participant-level ROCs (averaging over items), we can
use a dataset with one row per participant and only the
participant-level random effects:

roc1_rvars(m.categorical, distinct(d, participant), re_formula = ~ (1 | participant))
#> # A tibble: 250 × 7
#> # Groups:   .row, participant, joint_response, response, confidence [250]
#>     .row participant joint_response response confidence          p_fa         p_hit
#>    <int>       <int>          <int>    <int>      <dbl>    <rvar[1d]>    <rvar[1d]>
#>  1     1           1              1        0          3  0.68 ± 0.089  0.82 ± 0.068
#>  2     2           2              1        0          3  0.59 ± 0.099  0.94 ± 0.032
#>  3     3           3              1        0          3  0.71 ± 0.086  0.90 ± 0.047
#>  4     4           4              1        0          3  0.62 ± 0.093  0.81 ± 0.069
#>  5     5           5              1        0          3  0.83 ± 0.065  0.97 ± 0.021
#>  6     6           6              1        0          3  0.39 ± 0.095  0.76 ± 0.080
#>  7     7           7              1        0          3  0.77 ± 0.078  0.89 ± 0.049
#>  8     8           8              1        0          3  0.55 ± 0.099  0.91 ± 0.043
#>  9     9           9              1        0          3  0.58 ± 0.098  0.93 ± 0.038
#> 10    10          10              1        0          3  0.69 ± 0.089  0.95 ± 0.030
#> # ℹ 240 more rows

We can use a similar process to get item-level ROCs (averaging over
participants):

roc1_rvars(m.categorical, distinct(d, item), re_formula = ~ (1 | item))
#> # A tibble: 125 × 7
#> # Groups:   .row, item, joint_response, response, confidence [125]
#>     .row  item joint_response response confidence          p_fa         p_hit
#>    <int> <int>          <int>    <int>      <dbl>    <rvar[1d]>    <rvar[1d]>
#>  1     1     1              1        0          3  0.42 ± 0.065  0.96 ± 0.016
#>  2     2     2              1        0          3  0.72 ± 0.055  0.96 ± 0.017
#>  3     3     3              1        0          3  0.47 ± 0.065  0.87 ± 0.037
#>  4     4     4              1        0          3  0.45 ± 0.068  0.91 ± 0.029
#>  5     5     5              1        0          3  0.82 ± 0.043  0.97 ± 0.013
#>  6     6     6              1        0          3  0.81 ± 0.045  0.98 ± 0.010
#>  7     7     7              1        0          3  0.48 ± 0.067  0.83 ± 0.044
#>  8     8     8              1        0          3  0.59 ± 0.063  0.97 ± 0.015
#>  9     9     9              1        0          3  0.42 ± 0.068  0.90 ± 0.031
#> 10    10    10              1        0          3  0.56 ± 0.065  0.94 ± 0.023
#> # ℹ 115 more rows
…
